{"count":346,"next":"https://ll.thespacedevs.com/2.0.0/launch/upcoming/?limit=10&offset=10","previous":null,"results":[{"id":"66475296-048d-480b-b886-3644c1a1b6a4","url":"https://ll.thespacedevs.com/2.0.0/launch/66475296-048d-480b-b886-3644c1a1b6a4/","launch_library_id":null,"slug":"soyuz-21b-kosmos-unknown-payload","name":"Soyuz 2.1b | Kosmos (Unknown Payload)","status":{"id":1,"name":"Go"},"net":"2024-11-28T19:00:00Z","window_end":"2024-11-28T21:00:00Z","window_start":"2024-11-28T19:00:00Z","inhold":false,"tbdtime":true,"tbddate":false,"probability":null,"holdreason":"","failreason":"","hashtag":null,"launch_service_provider":{"id":193,"url":"https://ll.thespacedevs.com/2.0.0/agencies/193/","name":"Russian Space Forces","type":"Government"},"rocket":{"id":8412,"configuration":{"id":15,"launch_library_id":3,"url":"https://ll.thespacedevs.com/2.0.0/config/launcher/15/","name":"Soyuz 2.1b","family":"Soyuz","full_name":"Soyuz 2.1b","variant":""}},"mission":{"id":7001,"launch_library_id":null,"name":"Kosmos (Unknown Payload)","description":"Russian military satellite(s) of unknown variant.","launch_designator":null,"type":"Government/Top Secret","orbit":{"id":25,"name":"Unknown","abbrev":"N/A"}},"pad":{"id":48,"url":"https://ll.thespacedevs.com/2.0.0/pad/48/","agency_id":163,"name":"Unknown Pad","info_url":null,"wiki_url":"https://en.wikipedia.org/wiki/Plesetsk_Cosmodrome","map_url":"https://www.google.com/maps?q=62.925556,40.577778","latitude":"62.925556","longitude":"40.577778","location":{"id":6,"url":"https://ll.thespacedevs.com/2.0.0/location/6/","name":"Plesetsk Cosmodrome, Russian Federation","country_code":"RUS","map_image":"https://thespacedevs-prod.nyc3.digitaloceanspaces.com/media/map_images/location_6_20200803142434.jpg","total_launch_count":1670,"total_landing_count":0},"map_image":"https://thespacedevs-prod.nyc3.digitaloceanspaces.com/media/map_images/pad_48_20200803143459.jpg","total_launch_count":0},"webcast_live":false,"image":"https://thespacedevs-prod.nyc3.digitaloceanspaces.com/media/images/soyuz_2.1b_image_20230802085331.jpg","infographic":null,"program":[]},{"id":"f9834e80-9578-4095-9db8-67f5ec6ef5af","url":"https://ll.thespacedevs.com/2.0.0/launch/f9834e80-9578-4095-9db8-67f5ec6ef5af/","launch_library_id":null,"slug":"soyuz-21afregat-m-kondor-fka-no2","name":"Soyuz 2.1a/Fregat-M | Kondor-FKA No.2","status":{"id":1,"name":"Go"},"net":"2024-11-29T21:50:25Z","window_end":"2024-11-29T21:50:25Z","window_start":"2024-11-29T21:50:25Z","inhold":false,"tbdtime":false,"tbddate":false,"probability":null,"holdreason":"","failreason":"","hashtag":null,"launch_service_provider":{"id":63,"url":"https://ll.thespacedevs.com/2.0.0/agencies/63/","name":"Russian Federal Space Agency (ROSCOSMOS)","type":"Government"},"rocket":{"id":8179,"configuration":{"id":45,"launch_library_id":83,"url":"https://ll.thespacedevs.com/2.0.0/config/launcher/45/","name":"Soyuz 2.1a/Fregat-M","family":"Soyuz","full_name":"Soyuz 2.1a Fregat-M","variant":"Fregat-M"}},"mission":{"id":6757,"launch_library_id":null,"name":"Kondor-FKA No.2","description":"The Kondor-FKA is a small civilian radar Earth observation satellite designed by NPO Mashinostroyeniya as a civilian counterpart to the Kondor-E satellite.\r\n\r\nThe Kondor satellite features a S-band synthetic aperture radar (SAR), which can conduct both continous swath surweys or detailed spot surveys. The swath width is 10 km. Ground resolution is 1 to 2 m in spotlight mode, 1 to 3 m in stripmap mode and 5 to 30 m in ScanSAR mode.","launch_designator":null,"type":"Earth Science","orbit":{"id":17,"name":"Sun-Synchronous Orbit","abbrev":"SSO"}},"pad":{"id":83,"url":"https://ll.thespacedevs.com/2.0.0/pad/83/","agency_id":63,"name":"Cosmodrome Site 1S","info_url":null,"wiki_url":"https://en.wikipedia.org/wiki/Vostochny_Cosmodrome","map_url":"https://www.google.com/maps?q=51.884395,128.333932","latitude":"51.884395","longitude":"128.333932","location":{"id":18,"url":"https://ll.thespacedevs.com/2.0.0/location/18/","name":"Vostochny Cosmodrome, Siberia, Russian Federation","country_code":"RUS","map_image":"https://thespacedevs-prod.nyc3.digitaloceanspaces.com/media/map_images/location_18_20200803142401.jpg","total_launch_count":18,"total_landing_count":0},"map_image":"https://thespacedevs-prod.nyc3.digitaloceanspaces.com/media/map_images/pad_83_20200803143544.jpg","total_launch_count":17},"webcast_live":false,"image":"https://thespacedevs-prod.nyc3.digitaloceanspaces.com/media/images/soyuz_on_the_la_image_20241127185454.jpg","infographic":null,"program":[]},{"id":"7beb2fcf-acb3-4cf1-b31b-f2655416d1ed","url":"https://ll.thespacedevs.com/2.0.0/launch/7beb2fcf-acb3-4cf1-b31b-f2655416d1ed/","launch_library_id":null,"slug":"falcon-9-block-5-starlink-group-6-65","name":"Falcon 9 Block 5 | Starlink Group 6-65","status":{"id":2,"name":"TBD"},"net":"2024-11-30T05:00:00Z","window_end":"2024-11-30T09:00:00Z","window_start":"2024-11-30T05:00:00Z","inhold":false,"tbdtime":true,"tbddate":false,"probability":null,"holdreason":"","failreason":"","hashtag":null,"launch_service_provider":{"id":121,"url":"https://ll.thespacedevs.com/2.0.0/agencies/121/","name":"SpaceX","type":"Commercial"},"rocket":{"id":8420,"configuration":{"id":164,"launch_library_id":188,"url":"https://ll.thespacedevs.com/2.0.0/config/launcher/164/","name":"Falcon 9","family":"Falcon","full_name":"Falcon 9 Block 5","variant":"Block 5"}},"mission":{"id":7009,"launch_library_id":null,"name":"Starlink Group 6-65","description":"A batch of satellites for the Starlink mega-constellation - SpaceX's project for space-based Internet communication system.","launch_designator":null,"type":"Communications","orbit":{"id":8,"name":"Low Earth Orbit","abbrev":"LEO"}},"pad":{"id":80,"url":"https://ll.thespacedevs.com/2.0.0/pad/80/","agency_id":121,"name":"Space Launch Complex 40","info_url":null,"wiki_url":"https://en.wikipedia.org/wiki/Cape_Canaveral_Air_Force_Station_Space_Launch_Complex_40","map_url":"https://www.google.com/maps?q=28.56194122,-80.57735736","latitude":"28.56194122","longitude":"-80.57735736","location":{"id":12,"url":"https://ll.thespacedevs.com/2.0.0/location/12/","name":"Cape Canaveral SFS, FL, USA","country_code":"USA","map_image":"https://thespacedevs-prod.nyc3.digitaloceanspaces.com/media/map_images/location_12_20200803142519.jpg","total_launch_count":989,"total_landing_count":59},"map_image":"https://thespacedevs-prod.nyc3.digitaloceanspaces.com/media/map_images/pad_80_20200803143323.jpg","total_launch_count":275},"webcast_live":false,"image":"https://thespacedevs-prod.nyc3.digitaloceanspaces.com/media/images/falcon2520925_image_20221009234147.png","infographic":null,"program":[{"id":25,"url":"https://ll.thespacedevs.com/2.0.0/program/25/","name":"Starlink","description":"Starlink is a satellite internet constellation operated by American aerospace company SpaceX","agencies":[{"id":121,"url":"https://ll.thespacedevs.com/2.0.0/agencies/121/","name":"SpaceX","type":"Commercial"}],"image_url":"https://thespacedevs-prod.nyc3.digitaloceanspaces.com/media/images/starlink_program_20231228154508.jpeg","start_date":"2018-02-22T14:17:00Z","end_date":null,"info_url":"https://starlink.com","wiki_url":"https://en.wikipedia.org/wiki/Starlink"}]},{"id":"fed1b36f-965c-46ac-bb4d-8154930c4492","url":"https://ll.thespacedevs.com/2.0.0/launch/fed1b36f-965c-46ac-bb4d-8154930c4492/","launch_library_id":null,"slug":"falcon-9-block-5-nrol-126","name":"Falcon 9 Block 5 | NROL-126","status":{"id":2,"name":"TBD"},"net":"2024-11-30T08:10:00Z","window_end":"2024-11-30T12:08:00Z","window_start":"2024-11-30T08:08:00Z","inhold":false,"tbdtime":false,"tbddate":false,"probability":null,"holdreason":"","failreason":"","hashtag":null,"launch_service_provider":{"id":121,"url":"https://ll.thespacedevs.com/2.0.0/agencies/121/","name":"SpaceX","type":"Commercial"},"rocket":{"id":8421,"configuration":{"id":164,"launch_library_id":188,"url":"https://ll.thespacedevs.com/2.0.0/config/launcher/164/","name":"Falcon 9","family":"Falcon","full_name":"Falcon 9 Block 5","variant":"Block 5"}},"mission":{"id":7010,"launch_library_id":null,"name":"NROL-126","description":"Fifth batch of satellites for a reconnaissance satellite constellation built by SpaceX and Northrop Grumman for the National Reconnaissance Office to provide imaging and other reconnaissance capabilities.","launch_designator":null,"type":"Government/Top Secret","orbit":{"id":25,"name":"Unknown","abbrev":"N/A"}},"pad":{"id":16,"url":"https://ll.thespacedevs.com/2.0.0/pad/16/","agency_id":null,"name":"Space Launch Complex 4E","info_url":null,"wiki_url":"https://en.wikipedia.org/wiki/Vandenberg_Space_Launch_Complex_4#SLC-4E","map_url":"https://www.google.com/maps?q=34.632,-120.611","latitude":"34.632","longitude":"-120.611","location":{"id":11,"url":"https://ll.thespacedevs.com/2.0.0/location/11/","name":"Vandenberg SFB, CA, USA","country_code":"USA","map_image":"https://thespacedevs-prod.nyc3.digitaloceanspaces.com/media/map_images/location_11_20200803142416.jpg","total_launch_count":780,"total_landing_count":21},"map_image":"https://thespacedevs-prod.nyc3.digitaloceanspaces.com/media/map_images/pad_16_20200803143532.jpg","total_launch_count":168},"webcast_live":false,"image":"https://thespacedevs-prod.nyc3.digitaloceanspaces.com/media/images/falcon_9_on_slc_image_20241024165956.jpg","infographic":null,"program":[]},{"id":"87c8453f-8428-4acd-bbbe-9f37493f674f","url":"https://ll.thespacedevs.com/2.0.0/launch/87c8453f-8428-4acd-bbbe-9f37493f674f/","launch_library_id":null,"slug":"long-march-12-maiden-flight","name":"Long March 12 | Maiden Flight","status":{"id":2,"name":"TBD"},"net":"2024-11-30T13:30:00Z","window_end":"2024-11-30T16:00:00Z","window_start":"2024-11-30T13:30:00Z","inhold":false,"tbdtime":true,"tbddate":false,"probability":null,"holdreason":"","failreason":"","hashtag":null,"launch_service_provider":{"id":88,"url":"https://ll.thespacedevs.com/2.0.0/agencies/88/","name":"China Aerospace Science and Technology Corporation","type":"Government"},"rocket":{"id":8425,"configuration":{"id":517,"launch_library_id":null,"url":"https://ll.thespacedevs.com/2.0.0/config/launcher/517/","name":"Long March 12","family":"Long March","full_name":"Long March 12","variant":"12"}},"mission":{"id":7014,"launch_library_id":null,"name":"Maiden Flight","description":"First launch of the Long March 12 launch vehicle and the first launch from the Wenchang Commercial Space Launch Site. Payload on board and target orbit are TBD.","launch_designator":null,"type":"Test Flight","orbit":{"id":25,"name":"Unknown","abbrev":"N/A"}},"pad":{"id":219,"url":"https://ll.thespacedevs.com/2.0.0/pad/219/","agency_id":null,"name":"Commercial LC-2","info_url":null,"wiki_url":"https://en.wikipedia.org/wiki/Wenchang_Commercial_Space_Launch_Site","map_url":"https://www.google.com/maps?q=19.59755,110.936481","latitude":"19.59755","longitude":"110.936481","location":{"id":8,"url":"https://ll.thespacedevs.com/2.0.0/location/8/","name":"Wenchang Space Launch Site, People's Republic of China","country_code":"CHN","map_image":"https://thespacedevs-prod.nyc3.digitaloceanspaces.com/media/map_images/location_8_20200803142445.jpg","total_launch_count":32,"total_landing_count":0},"map_image":"https://thespacedevs-prod.nyc3.digitaloceanspaces.com/media/map_images/pad_commercial_lc-2_20231225074048.jpg","total_launch_count":0},"webcast_live":false,"image":null,"infographic":null,"program":[]},{"id":"81fe0bdd-6a33-4976-9bad-4a1268400b1e","url":"https://ll.thespacedevs.com/2.0.0/launch/81fe0bdd-6a33-4976-9bad-4a1268400b1e/","launch_library_id":null,"slug":"long-march-6a-unknown-payload","name":"Long March 6A | Unknown Payload","status":{"id":1,"name":"Go"},"net":"2024-12-02T04:55:00Z","window_end":"2024-12-02T05:06:00Z","window_start":"2024-12-02T04:45:00Z","inhold":false,"tbdtime":true,"tbddate":false,"probability":null,"holdreason":"","failreason":"","hashtag":null,"launch_service_provider":{"id":88,"url":"https://ll.thespacedevs.com/2.0.0/agencies/88/","name":"China Aerospace Science and Technology Corporation","type":"Government"},"rocket":{"id":8427,"configuration":{"id":478,"launch_library_id":null,"url":"https://ll.thespacedevs.com/2.0.0/config/launcher/478/","name":"Long March 6A","family":"Long March","full_name":"Long March 6A","variant":""}},"mission":{"id":7016,"launch_library_id":null,"name":"Unknown Payload","description":"Possibly CZ-6A launch with a batch of G60 Low Earth Orbit communication constellation satellites, details TBD.","launch_designator":null,"type":"Unknown","orbit":{"id":25,"name":"Unknown","abbrev":"N/A"}},"pad":{"id":200,"url":"https://ll.thespacedevs.com/2.0.0/pad/200/","agency_id":null,"name":"Launch Complex 9A","info_url":null,"wiki_url":null,"map_url":"https://www.google.com/maps?q=38.8583,111.5802","latitude":"38.8583","longitude":"111.5802","location":{"id":19,"url":"https://ll.thespacedevs.com/2.0.0/location/19/","name":"Taiyuan Satellite Launch Center, People's Republic of China","country_code":"CHN","map_image":"https://thespacedevs-prod.nyc3.digitaloceanspaces.com/media/map_images/location_19_20200803142421.jpg","total_launch_count":135,"total_landing_count":0},"map_image":"https://thespacedevs-prod.nyc3.digitaloceanspaces.com/media/map_images/pad_launch_complex_9a_20220330003717.jpg","total_launch_count":9},"webcast_live":false,"image":"https://thespacedevs-prod.nyc3.digitaloceanspaces.com/media/images/cz-6a_liftoff__image_20241020123401.jpg","infographic":null,"program":[]},{"id":"351bf216-4cae-49df-82d0-9afaeb5df0f2","url":"https://ll.thespacedevs.com/2.0.0/launch/351bf216-4cae-49df-82d0-9afaeb5df0f2/","launch_library_id":null,"slug":"long-march-3be-unknown-payload","name":"Long March 3B/E | Unknown Payload","status":{"id":1,"name":"Go"},"net":"2024-12-03T05:55:00Z","window_end":"2024-12-03T06:21:00Z","window_start":"2024-12-03T05:46:00Z","inhold":false,"tbdtime":true,"tbddate":false,"probability":null,"holdreason":"","failreason":"","hashtag":null,"launch_service_provider":{"id":88,"url":"https://ll.thespacedevs.com/2.0.0/agencies/88/","name":"China Aerospace Science and Technology Corporation","type":"Government"},"rocket":{"id":8434,"configuration":{"id":50,"launch_library_id":69,"url":"https://ll.thespacedevs.com/2.0.0/config/launcher/50/","name":"Long March 3","family":"Long March","full_name":"Long March 3B/E","variant":"B/E"}},"mission":{"id":7023,"launch_library_id":null,"name":"Unknown Payload","description":"Details TBD.","launch_designator":null,"type":"Unknown","orbit":{"id":25,"name":"Unknown","abbrev":"N/A"}},"pad":{"id":45,"url":"https://ll.thespacedevs.com/2.0.0/pad/45/","agency_id":null,"name":"Launch Complex 2 (LC-2)","info_url":null,"wiki_url":"https://en.wikipedia.org/wiki/Xichang_Satellite_Launch_Center","map_url":"https://www.google.com/maps?q=28.245564,102.026751","latitude":"28.245564","longitude":"102.026751","location":{"id":16,"url":"https://ll.thespacedevs.com/2.0.0/location/16/","name":"Xichang Satellite Launch Center, People's Republic of China","country_code":"CHN","map_image":"https://thespacedevs-prod.nyc3.digitaloceanspaces.com/media/map_images/location_16_20200803142513.jpg","total_launch_count":214,"total_landing_count":0},"map_image":"https://thespacedevs-prod.nyc3.digitaloceanspaces.com/media/map_images/pad_45_20200803143520.jpg","total_launch_count":113},"webcast_live":false,"image":"https://thespacedevs-prod.nyc3.digitaloceanspaces.com/media/images/long2520march25203_image_20190222031215.jpeg","infographic":null,"program":[]},{"id":"a757f8b0-4e5c-4223-bc27-361a8206a3bf","url":"https://ll.thespacedevs.com/2.0.0/launch/a757f8b0-4e5c-4223-bc27-361a8206a3bf/","launch_library_id":null,"slug":"falcon-9-block-5-starlink-group-9-14","name":"Falcon 9 Block 5 | Starlink Group 9-14","status":{"id":2,"name":"TBD"},"net":"2024-12-04T00:29:00Z","window_end":"2024-12-04T04:29:00Z","window_start":"2024-12-04T00:29:00Z","inhold":false,"tbdtime":true,"tbddate":false,"probability":null,"holdreason":"","failreason":"","hashtag":null,"launch_service_provider":{"id":121,"url":"https://ll.thespacedevs.com/2.0.0/agencies/121/","name":"SpaceX","type":"Commercial"},"rocket":{"id":8422,"configuration":{"id":164,"launch_library_id":188,"url":"https://ll.thespacedevs.com/2.0.0/config/launcher/164/","name":"Falcon 9","family":"Falcon","full_name":"Falcon 9 Block 5","variant":"Block 5"}},"mission":{"id":7011,"launch_library_id":null,"name":"Starlink Group 9-14","description":"A batch of satellites for the Starlink mega-constellation - SpaceX's project for space-based Internet communication system.","launch_designator":null,"type":"Communications","orbit":{"id":8,"name":"Low Earth Orbit","abbrev":"LEO"}},"pad":{"id":16,"url":"https://ll.thespacedevs.com/2.0.0/pad/16/","agency_id":null,"name":"Space Launch Complex 4E","info_url":null,"wiki_url":"https://en.wikipedia.org/wiki/Vandenberg_Space_Launch_Complex_4#SLC-4E","map_url":"https://www.google.com/maps?q=34.632,-120.611","latitude":"34.632","longitude":"-120.611","location":{"id":11,"url":"https://ll.thespacedevs.com/2.0.0/location/11/","name":"Vandenberg SFB, CA, USA","country_code":"USA","map_image":"https://thespacedevs-prod.nyc3.digitaloceanspaces.com/media/map_images/location_11_20200803142416.jpg","total_launch_count":780,"total_landing_count":21},"map_image":"https://thespacedevs-prod.nyc3.digitaloceanspaces.com/media/map_images/pad_16_20200803143532.jpg","total_launch_count":168},"webcast_live":false,"image":"https://thespacedevs-prod.nyc3.digitaloceanspaces.com/media/images/falcon2520925_image_20221009234147.png","infographic":null,"program":[{"id":25,"url":"https://ll.thespacedevs.com/2.0.0/program/25/","name":"Starlink","description":"Starlink is a satellite internet constellation operated by American aerospace company SpaceX","agencies":[{"id":121,"url":"https://ll.thespacedevs.com/2.0.0/agencies/121/","name":"SpaceX","type":"Commercial"}],"image_url":"https://thespacedevs-prod.nyc3.digitaloceanspaces.com/media/images/starlink_program_20231228154508.jpeg","start_date":"2018-02-22T14:17:00Z","end_date":null,"info_url":"https://starlink.com","wiki_url":"https://en.wikipedia.org/wiki/Starlink"}]},{"id":"f50d89cf-7c9a-4b7e-bc6e-f7e59950995d","url":"https://ll.thespacedevs.com/2.0.0/launch/f50d89cf-7c9a-4b7e-bc6e-f7e59950995d/","launch_library_id":null,"slug":"falcon-9-block-5-starlink-group-6-70","name":"Falcon 9 Block 5 | Starlink Group 6-70","status":{"id":2,"name":"TBD"},"net":"2024-12-04T08:29:00Z","window_end":"2024-12-04T12:29:00Z","window_start":"2024-12-04T08:29:00Z","inhold":false,"tbdtime":true,"tbddate":false,"probability":null,"holdreason":"","failreason":"","hashtag":null,"launch_service_provider":{"id":121,"url":"https://ll.thespacedevs.com/2.0.0/agencies/121/","name":"SpaceX","type":"Commercial"},"rocket":{"id":8432,"configuration":{"id":164,"launch_library_id":188,"url":"https://ll.thespacedevs.com/2.0.0/config/launcher/164/","name":"Falcon 9","family":"Falcon","full_name":"Falcon 9 Block 5","variant":"Block 5"}},"mission":{"id":7021,"launch_library_id":null,"name":"Starlink Group 6-70","description":"A batch of satellites for the Starlink mega-constellation - SpaceX's project for space-based Internet communication system.","launch_designator":null,"type":"Communications","orbit":{"id":8,"name":"Low Earth Orbit","abbrev":"LEO"}},"pad":{"id":80,"url":"https://ll.thespacedevs.com/2.0.0/pad/80/","agency_id":121,"name":"Space Launch Complex 40","info_url":null,"wiki_url":"https://en.wikipedia.org/wiki/Cape_Canaveral_Air_Force_Station_Space_Launch_Complex_40","map_url":"https://www.google.com/maps?q=28.56194122,-80.57735736","latitude":"28.56194122","longitude":"-80.57735736","location":{"id":12,"url":"https://ll.thespacedevs.com/2.0.0/location/12/","name":"Cape Canaveral SFS, FL, USA","country_code":"USA","map_image":"https://thespacedevs-prod.nyc3.digitaloceanspaces.com/media/map_images/location_12_20200803142519.jpg","total_launch_count":989,"total_landing_count":59},"map_image":"https://thespacedevs-prod.nyc3.digitaloceanspaces.com/media/map_images/pad_80_20200803143323.jpg","total_launch_count":275},"webcast_live":false,"image":"https://thespacedevs-prod.nyc3.digitaloceanspaces.com/media/images/falcon2520925_image_20221009234147.png","infographic":null,"program":[{"id":25,"url":"https://ll.thespacedevs.com/2.0.0/program/25/","name":"Starlink","description":"Starlink is a satellite internet constellation operated by American aerospace company SpaceX","agencies":[{"id":121,"url":"https://ll.thespacedevs.com/2.0.0/agencies/121/","name":"SpaceX","type":"Commercial"}],"image_url":"https://thespacedevs-prod.nyc3.digitaloceanspaces.com/media/images/starlink_program_20231228154508.jpeg","start_date":"2018-02-22T14:17:00Z","end_date":null,"info_url":"https://starlink.com","wiki_url":"https://en.wikipedia.org/wiki/Starlink"}]},{"id":"2a780cb9-9bf9-4537-927e-389f1659a709","url":"https://ll.thespacedevs.com/2.0.0/launch/2a780cb9-9bf9-4537-927e-389f1659a709/","launch_library_id":1130,"slug":"pslv-xl-proba-3","name":"PSLV-XL | Proba-3","status":{"id":1,"name":"Go"},"net":"2024-12-04T10:38:00Z","window_end":"2024-12-04T10:38:00Z","window_start":"2024-12-04T10:38:00Z","inhold":false,"tbdtime":false,"tbddate":false,"probability":null,"holdreason":"","failreason":"","hashtag":null,"launch_service_provider":{"id":31,"url":"https://ll.thespacedevs.com/2.0.0/agencies/31/","name":"Indian Space Research Organization","type":"Government"},"rocket":{"id":55,"configuration":{"id":38,"launch_library_id":38,"url":"https://ll.thespacedevs.com/2.0.0/config/launcher/38/","name":"PSLV-XL","family":"PSLV","full_name":"PSLV XL","variant":"XL"}},"mission":{"id":6791,"launch_library_id":null,"name":"Proba-3","description":"Proba-3 (Project for On-Board Autonomy 3) is the first close formation flying mission for the European Space Agency (ESA). It consists of two independent, three-axis stabilised spacecraft flying 150 meters from one another with the ability to accurately control the attitude and separation of the two craft. Such formation flying will be maintained for 6 hours, creating ″artificial solar eclipse″ for the satellite below. \r\n\r\nThe spacecraft pair will fly a highly elliptical orbit divided between periods of accurate formation flying around apogee, when payload operations will be possible, and periods of free flight.","launch_designator":null,"type":"Technology","orbit":{"id":0,"name":"Elliptical Orbit","abbrev":"Elliptical"}},"pad":{"id":50,"url":"https://ll.thespacedevs.com/2.0.0/pad/50/","agency_id":31,"name":"Satish Dhawan Space Centre First Launch Pad","info_url":null,"wiki_url":"https://en.wikipedia.org/wiki/Satish_Dhawan_Space_Centre_First_Launch_Pad","map_url":"https://www.google.com/maps?q=13.733,80.235","latitude":"13.733","longitude":"80.235","location":{"id":14,"url":"https://ll.thespacedevs.com/2.0.0/location/14/","name":"Satish Dhawan Space Centre, India","country_code":"IND","map_image":"https://thespacedevs-prod.nyc3.digitaloceanspaces.com/media/map_images/location_14_20200803142403.jpg","total_launch_count":95,"total_landing_count":0},"map_image":"https://thespacedevs-prod.nyc3.digitaloceanspaces.com/media/map_images/pad_50_20200803143457.jpg","total_launch_count":59},"webcast_live":false,"image":"https://thespacedevs-prod.nyc3.digitaloceanspaces.com/media/images/pslv_image_20190224012254.jpeg","infographic":null,"program":[]}]}